<svg xmlns="http://www.w3.org/2000/svg" version="1.1" id="Facebook_w_x2F__circle" x="0" y="0" viewBox="0 0 20 20" enable-background="new 0 0 20 20" xml:space="preserve">
  <path fill="#fff" d="M10 0.4c-5.3 0-9.6 4.3-9.6 9.6s4.3 9.6 9.6 9.6 9.6-4.3 9.6-9.6S15.3 0.4 10 0.4zM12.27 7.03h-1.44c-0.17 0-0.36 0.23-0.36 0.52V8.6h1.81l-0.27 1.49H10.47v4.46H8.77v-4.46H7.22V8.6h1.55V7.73c0-1.25 0.87-2.27 2.06-2.27h1.44V7.03z"/>
</svg>
