<svg xmlns="http://www.w3.org/2000/svg" xmlns:xlink="http://www.w3.org/1999/xlink" version="1.1" id="Google_x2B__w_x2F__circle" x="0" y="0" viewBox="0 0 20 20" enable-background="new 0 0 20 20" xml:space="preserve">
  <path fill="#fff" d="M10 0.4c-5.3 0-9.6 4.3-9.6 9.6s4.3 9.6 9.6 9.6 9.6-4.3 9.6-9.6S15.3 0.4 10 0.4zM9.45 14.12c-0.6 0.29-1.25 0.32-1.5 0.32 -0.05 0-0.07 0-0.07 0s-0.02 0-0.05 0c-0.39 0-2.34-0.09-2.34-1.87 0-1.75 2.13-1.88 2.78-1.88h0.02c-0.38-0.5-0.3-1.01-0.3-1.01C7.93 9.69 7.89 9.69 7.83 9.69c-0.24 0-0.72-0.04-1.12-0.3 -0.5-0.32-0.75-0.86-0.75-1.62 0-2.13 2.33-2.22 2.35-2.22h2.32v0.05c0 0.26-0.47 0.31-0.78 0.35C9.73 5.97 9.52 5.99 9.46 6.03c0.59 0.32 0.68 0.81 0.68 1.55 0 0.84-0.33 1.28-0.68 1.59C9.25 9.36 9.08 9.51 9.08 9.71c0 0.2 0.23 0.4 0.5 0.64 0.44 0.39 1.05 0.92 1.05 1.81C10.63 13.08 10.23 13.74 9.45 14.12zM14.5 10H13v1.5h-1V10h-1.5V9H12V7.5h1V9h1.5V10zM8.22 11.15c-0.05 0-0.1 0-0.16 0.01 -0.44 0.03-0.85 0.2-1.15 0.47 -0.29 0.27-0.44 0.6-0.42 0.94 0.05 0.71 0.81 1.13 1.74 1.06 0.91-0.07 1.52-0.59 1.48-1.3C9.66 11.66 9.08 11.15 8.22 11.15zM9.1 7.29c-0.24-0.85-0.63-1.1-1.24-1.1 -0.06 0-0.13 0.01-0.19 0.03C7.4 6.29 7.19 6.5 7.08 6.83 6.96 7.16 6.95 7.5 7.05 7.9c0.19 0.7 0.68 1.21 1.19 1.21 0.07 0 0.13-0.01 0.19-0.03C8.98 8.92 9.32 8.09 9.1 7.29z"/>
</svg>
